Wierzchołki	Czas(us)	czas	dystans	trasy
1	3	0	0	0
2	16	3603.89	531.774	1
3	31	4444.32	828.638	2
4	15	5117.49	1281.51	2
5	15	5221.33	1375.35	2
6	25	5533.98	1488.65	3
7	31	5632.33	1577	3
8	66	5887.6	1822.27	3
9	62	7181.88	2239.76	3
10	74	8656.47	2799.73	3
11	97	9389.13	3149.04	4
12	66	9460.81	3210.72	4
13	72	9471	3210.91	4
14	111	11697.5	3302.15	4
15	144	12151.2	3599.48	5
16	97	12541.7	3980.01	5
17	103	12962.9	4391.14	5
18	116	13133.4	4551.64	5
19	127	13346.9	4755.15	5
20	138	13906.3	4952.56	5
21	179	13917.1	4953.39	5
22	164	14790.1	5259.41	6
23	172	14864.9	5324.23	6
24	260	14949.5	5398.76	6
25	188	15160.9	5600.23	6
26	209	15375.6	5804.91	6
27	212	15630.6	6049.9	6
28	230	16339.4	6375.48	7
29	234	16764.7	6790.82	7
30	239	17851.6	6938.1	7
31	248	18197.2	7273.71	7
32	281	18616.1	7682.61	7
33	259	18784.3	7840.77	7
34	263	19273.8	8125.99	7
35	277	19439.7	8281.88	7
36	292	19814.1	8646.25	7
37	305	20344.6	8718.61	7
38	322	20637.2	9001.25	7
39	331	21092.2	9299.14	8
40	360	21283	9480.01	8
41	374	21534.4	9721.39	8
42	366	22123.6	10300.5	8
43	356	23649.8	10666.4	8
44	378	24224.5	10778.2	8
45	377	24790.1	11155.1	8
46	433	24972.5	11327.4	8
47	401	25321.1	11647	8
48	491	25446.5	11762.4	8
49	448	25957.1	12127.9	8
50	468	26297.2	12458.1	8
51	471	27349.9	12801.5	9
52	503	27569.5	13011.1	9
53	526	28144.8	13287.6	10
54	517	28834.2	13441.4	10
55	587	29907	13716.5	10
56	571	30041.4	13840.8	10
57	561	30126	13915.5	10
58	639	30161.1	13940.6	10
59	854	30718.1	14320.7	10
60	624	30740.2	14332.8	10
61	653	31132.7	14715.3	10
62	678	31664	15236.6	10
63	709	32333.1	15895.7	10
64	738	32843.1	16215.7	11
65	711	32920.6	16283.3	11
66	734	32932.3	16284.9	11
67	761	32981.6	16324.2	11
68	767	33095.5	16428.1	11
69	790	33380.6	16703.2	11
70	823	34366.9	16721.2	11
71	823	35315.5	16721.5	11
72	833	35716.2	16975.9	11
73	857	36319.4	17129.5	11
74	826	36907.8	17707.9	11
75	858	36932.7	17722.9	11
76	920	37319.8	18100	11
77	973	37366.2	18136.4	11
78	941	37940.5	18447	12
79	954	38261.4	18757.9	12
80	981	38324.6	18811.1	12
81	1023	38677.4	19153.8	12
82	1011	39003.1	19469.6	12
83	1049	39187.6	19644	12
84	1030	40259.6	20193.2	12
85	1055	40324	20247.6	12
86	1203	40585.7	20491	12
87	1094	41760.6	20736.8	12
88	1111	42103.9	20885.3	13
89	1169	42190	20961.5	13
90	1142	42309.8	21071.2	13
91	1168	42371.7	21123.1	13
92	1276	42522.1	21263.5	13
93	1242	44158.8	21740.4	13
94	1247	44195.5	21767	13
95	1224	44483.6	22045.2	13
96	1213	44556	22107.5	13
97	1242	44773.1	22314.6	13
98	1401	44832	22363.5	13
99	2120	44842	22363.5	13
100	2333	44941.9	22453.4	13
101	1425	44958	22459.6	13
102	1432	44985	22476.6	13
103	1461	45178.2	22659.8	13
104	1416	45421	22892.6	13
105	1454	45694.1	23155.6	13
106	1592	46089.3	23483.9	13
107	1498	48385.3	23864.6	13
108	1551	48550.8	24020.1	13
109	1542	48796.9	24256.2	13
110	1494	49184.3	24633.6	13
111	1605	49212.1	24651.4	13
112	1585	50535.3	25163.2	13
113	1610	51471.4	25648.8	13
114	1653	51892	26059.4	13
115	1916	52133.2	26271.7	14
116	2006	52174.1	26302.7	14
117	1809	52497.5	26616.1	14
118	1828	53006.2	27114.8	14
119	1762	53153.8	27252.4	14
120	1733	53188.2	27276.7	14
121	1827	53263.2	27341.8	14
122	1765	53463.8	27532.4	14
123	1786	53485.5	27544.1	14
124	1779	53626.3	27674.9	14
125	1885	53682.3	27720.8	14
126	1837	53913.9	27942.5	14
127	1896	53986	28004.6	14
128	1866	54274.7	28179.7	14
129	1913	54800.9	28695.9	14
130	1898	55009.9	28752.5	14
131	1932	55243.1	28975.7	14
132	1946	55738.2	29460.8	14
133	1962	56113.4	29826	14
134	2041	56559.9	30262.5	14
135	2051	57306.1	30587	15
136	2095	57587.7	30858.5	15
137	2082	58020.7	31281.5	15
138	2081	58405.6	31656.5	15
139	2601	58852.4	32091.5	15
140	2303	59306.6	32535.7	15
141	2234	59471.8	32687.6	15
142	2222	59545.4	32751.1	15
143	2265	59780.9	32976.6	15
144	2245	60159.6	33244.1	16
145	2304	60489.5	33564	16
146	2281	60797.6	33862.1	16
147	2361	61067.4	34121.9	16
148	2372	61449.8	34494.3	16
149	2391	61553.5	34588	16
150	2512	61838.6	34604.1	17
151	2668	62586.3	35106.5	17
152	2506	62638.3	35148.5	17
153	2570	62648.4	35148.6	17
154	2512	62713.8	35204	17
155	2606	62930.4	35410.6	17
156	2569	63018.2	35488.4	17
157	2614	63050.8	35511	17
158	2603	63261.7	35711.9	17
159	2696	63445.7	35885.9	17
160	2661	63757.2	36187.4	17
161	2793	63982.2	36402.4	17
162	2933	64309.1	36522.2	18
163	2863	64586.7	36789.8	18
164	2882	65480.7	36941.8	18
165	2925	65774.3	37225.4	18
166	3005	66061.8	37502.9	18
167	2914	66302.8	37733.9	18
168	2940	66350.4	37771.5	18
169	2887	66662.2	38073.3	18
170	2998	66959.3	38360.4	18
171	3019	67263.9	38655	18
172	3038	67478.2	38832.4	18
173	3023	67889.1	39201.4	18
174	3093	68600.9	39352.3	18
175	3090	69033.7	39775.1	18
176	3201	69241.9	39973.3	18
177	3183	69256.4	39977.8	19
178	3322	69806.5	40375.2	19
179	3430	69908.7	40467.5	19
180	3950	70817.9	40903.4	19
181	3604	70892.1	40967.6	19
182	4296	71451.2	41234.6	19
183	3682	71717.4	41490.9	19
184	3756	71967.5	41731	19
185	4526	72212.7	41966.1	19
186	4071	72348.1	42091.6	19
187	3701	72592.5	42325.9	19
188	3610	72915.2	42638.7	19
189	4091	73076.5	42789.9	19
190	3779	73248.1	42951.5	19
191	3795	73622.3	43315.7	19
192	3899	73749.8	43433.3	19
193	3831	73763.2	43436.7	19
194	4039	74003.8	43442.9	19
195	3975	74511.7	43940.8	19
196	3927	74553.6	43972.7	19
197	3880	74838.7	44247.8	19
198	4966	74872.4	44271.5	19
199	5617	74919.8	44308.9	19
200	4704	75076.3	44455.4	19
201	4669	75519.4	44888.5	19
202	4905	76453.2	45206.1	20
203	4035	76885.1	45210.4	20
204	4141	77200.8	45516.1	20
205	4072	77527.2	45832.5	20
206	4173	77895.3	46190.6	20
207	4243	78012.7	46298	21
208	4344	78126.5	46401.8	21
209	4154	78509.2	46774.5	21
210	4325	78991.3	47246.6	21
211	4194	79694.2	47530	21
212	4466	79741.1	47566.8	21
213	4343	79882.7	47698.4	21
214	4283	80066.6	47872.3	21
215	4277	80279	47874.8	21
216	4332	80399.9	47985.7	21
217	4490	80437.2	48013	21
218	4394	80723.1	48288.9	21
219	4404	80768.3	48324.1	21
220	4448	80843.8	48389.6	21
221	4485	81082.4	48618.1	21
222	4542	81519	49044.8	21
223	5791	81536.6	49052.4	21
224	4880	81686.4	49192.2	21
225	5530	81836.4	49332.2	21
226	4841	82286.4	49628.3	22
227	5606	82553.5	49885.4	22
228	4906	82669.5	49991.3	22
229	5871	82686.1	49997.9	22
230	4981	83127.5	50429.4	22
231	5903	83141.7	50433.6	22
232	5117	83545.5	50827.3	22
233	5966	84047.6	51319.4	22
234	5117	84410.8	51672.7	22
235	5878	84514.4	51766.2	23
236	5997	84636.4	51878.3	23
237	5350	84730.6	51962.5	23
238	6091	84990.3	52004.4	23
239	5389	85304.3	52308.5	23
240	5443	85522.4	52516.5	23
241	5641	85940.9	52815	23
242	5317	86304.6	53168.8	23
243	5369	86321.8	53175.9	23
244	5416	86666.9	53511.1	23
245	5497	86722.3	53556.5	23
246	5483	86824.5	53648.6	23
247	5482	87056.7	53870.9	23
248	5535	87764.1	54183.5	23
249	5582	87858	54267.3	23
250	5607	88082.5	54481.8	23
251	5717	88316.6	54705.9	23
252	5778	88384.4	54763.8	23
253	5813	88429.9	54796.7	24
254	5882	88945.6	55302.5	24
255	6104	88955.9	55302.7	24
256	7237	89669.5	55692.4	24
257	6373	89723.7	55736.6	24
258	6832	89938.1	55940.9	24
259	6576	89956.7	55949.6	24
260	6215	90040.3	56023.2	24
261	7074	90072.9	56045.8	24
262	6297	90220.9	56121	24
263	6953	90517.9	56408	24
264	7215	90983.2	56863.3	24
265	6403	91353.6	57085.8	24
266	7082	91648.6	57370.9	24
267	7119	92069	57781.3	24
268	6479	92357.4	57935.5	24
269	7011	92711.1	58279.2	24
270	6620	92822	58380.2	24
271	6776	93096.4	58644.5	24
272	6648	93376.4	58872.7	25
273	6530	93465.5	58951.7	25
274	6630	93479.9	58956.1	25
275	6789	93491	58957.2	25
276	6895	93592.8	59049	25
277	6761	93644.8	59091	25
278	6714	94101.3	59339.9	25
279	6808	94182.4	59411	25
280	6996	94612.5	59831.1	25
281	6920	94837	60045.6	25
282	7258	95136.2	60334.8	25
283	7247	95163.4	60352.1	25
284	8455	95497.6	60676.2	25
285	8022	95602.7	60771.3	25
286	7308	95709.5	60868.1	25
287	8058	95930.1	61078.7	25
288	8269	96302.5	61441.2	25
289	8453	96313.1	61441.7	25
290	8066	97023.3	61915	25
291	7820	97558.9	62440.5	25
292	8456	97679.3	62550.9	25
293	8363	97990	62851.7	25
294	8463	98119	62970.7	26
295	7962	98301.1	63004.9	26
296	7774	98650.7	63344.6	26
297	7782	98665.4	63349.3	26
298	7602	98681.4	63355.2	26
299	7571	99246.6	63659.1	26
300	7611	99729.1	64131.6	26
301	7679	99740.7	64133.2	26
302	7722	99861.4	64243.9	26
303	7784	99871.5	64244	26
304	7823	100055	64417.8	26
305	7830	100562	64719.5	27
306	8126	100666	64813.8	27
307	9077	101097	65234	27
308	8312	101337	65464.5	27
309	8617	101455	65572.1	27
310	9379	101655	65762.6	27
311	9397	101987	66084.2	27
312	9337	102213	66300	27
313	9572	102611	66688.8	27
314	9541	103073	67140.5	27
315	9514	103240	67297	28
316	8950	103786	67623.3	28
317	9027	103914	67741.2	28
318	8832	104052	67869.4	28
319	8875	104153	67960.2	28
320	8722	104269	68066.4	28
321	8662	104435	68221.5	28
322	8923	104639	68415.9	28
323	8727	104796	68563.1	28
324	8830	104816	68573.1	28
325	8766	104895	68642.4	28
326	8913	104949	68686.1	28
327	8993	104961	68687.7	28
328	10361	105532	68997.7	29
329	9544	105544	68999.6	29
330	10320	105768	69213.8	29
331	10166	106024	69460.1	29
332	10506	106108	69494.3	29
333	10350	106443	69819.5	29
334	10574	106967	70333.5	29
335	10486	107209	70564.9	29
336	10490	107305	70651	29
337	10062	107394	70729.8	29
338	10525	107434	70760.1	29
339	10053	107447	70763.2	29
340	9643	107817	71123.1	29
341	9655	108192	71488	29
342	9584	108512	71798.1	29
343	9680	109307	72232.3	30
344	10090	109325	72240.1	30
345	9860	109341	72246.3	30
346	10017	109561	72455.8	30
347	11309	109792	72631.1	31
348	10367	109980	72808.5	31
349	11311	110504	73180.1	31
350	11413	110572	73238.3	31
351	11415	110790	73446.3	31
352	11447	110829	73475	31
353	11566	111140	73776.1	31
354	11507	111342	73967.9	31
355	10970	111522	74137.9	31
356	10966	111777	74383.6	31
357	10849	111982	74578.5	31
358	10739	112040	74626.2	31
359	10596	112061	74637	31
360	10917	112399	74965.6	31
361	10868	112442	74998.8	31
362	10839	112729	75275.4	31
363	11081	112919	75454.9	31
364	11034	113255	75705.5	32
365	12937	113570	76010.9	32
366	12704	113734	76164.6	32
367	12559	113748	76168.3	32
368	12498	113824	76234.7	32
369	12706	113895	76296.1	32
370	12760	113916	76307	32
371	12607	114098	76478.2	32
372	11916	114321	76691.8	32
373	11729	114665	77025.8	32
374	11528	115010	77360.5	32
375	11535	115074	77414.2	32
376	11819	115454	77784.5	32
377	11629	115542	77863	32
378	11831	115553	77863.4	32
379	11922	116082	78295	32
380	13400	116329	78532.4	32
381	12332	116767	78960.6	32
382	12964	117042	79225	32
383	13322	117164	79337.1	32
384	13397	117461	79624.9	32
385	14357	117495	79648.6	32
386	13287	117900	80043.2	32
387	12768	118008	80141.3	33
388	12310	118264	80387.7	33
389	12443	118714	80531.4	33
390	12471	118870	80677.5	33
391	12363	119301	81098.4	33
392	12392	119488	81275.5	33
393	12605	119856	81633.2	33
394	13019	119875	81642.2	33
395	13952	119942	81699.1	33
396	13845	120260	82007.5	33
397	14191	120274	82010.8	33
398	14973	120425	82152.4	33
399	14197	120438	82155.2	33
400	14516	120877	82584.5	33
401	14046	121147	82844.5	33
402	13438	121865	83231.4	34
403	13051	121893	83249.3	34
404	13749	121950	83296.3	34
405	13246	122018	83355.1	34
406	13495	122214	83540.3	34
407	13142	122352	83668.7	34
408	13215	122435	83741.4	35
409	14440	122592	83888.7	35
410	13884	122634	83920.3	35
411	14833	122698	83974.5	35
412	15548	123102	84368.5	35
413	15053	123225	84481.5	35
414	15406	123668	84915	35
415	14912	123738	84974.2	35
416	14123	123759	84985.5	35
417	13877	124061	85277.4	35
418	13640	124290	85481.9	35
419	13876	124520	85701.9	35
420	13902	124953	86124	35
421	14052	125063	86224.3	35
422	13889	125968	86648.8	35
423	15281	126144	86814.8	35
424	15476	126291	86951.8	35
425	15200	126312	86962.5	35
426	16138	126551	87191.7	35
427	15747	127179	87466.4	36
428	15722	127225	87502.5	36
429	15088	127353	87620.3	36
430	15093	127767	88024.3	36
431	14799	127791	88038.3	36
432	14713	128166	88402.9	36
433	14503	128531	88758.3	36
434	14650	128931	89148.6	36
435	14606	128983	89190.3	36
436	16522	129091	89288.1	36
437	16303	129296	89483.3	36
438	16902	129406	89583.8	37
439	16474	129773	89940.6	37
440	17125	129791	89948.1	37
441	16246	129818	89965.1	37
442	15366	130062	90199.2	37
443	15398	130383	90510	37
444	15318	130564	90681.3	37
445	15259	130875	90982.2	37
446	15228	131137	91234.1	37
447	15172	131638	91724.4	37
448	16839	131943	92019.8	37
449	17700	131963	92029.7	37
450	16776	132234	92290.3	37
451	17904	132248	92295	37
452	17938	132259	92295.9	37
453	16458	132583	92610.1	37
454	15855	132698	92698.2	37
455	15966	132984	92974.2	37
456	16504	132995	92974.5	37
457	16008	133181	93150.8	37
458	16199	133562	93521.6	37
459	18794	133667	93616.8	37
460	17483	133880	93819.4	37
461	19377	134373	94302.3	37
462	18483	134394	94313.4	37
463	17455	135051	94709.5	37
464	17189	135573	95221.2	37
465	17154	135691	95329.3	38
466	17310	135936	95564.4	38
467	17017	135947	95565.1	38
468	17016	136145	95753.8	38
469	16748	136189	95787.2	38
470	17914	136351	95940	38
471	17476	136775	96353.3	38
472	18546	137135	96703.8	38
473	19347	137784	96999.4	38
474	18977	137894	97099.5	38
475	18064	138204	97399.1	38
476	17783	138343	97528.5	38
477	17281	138533	97708.2	39
478	17229	138569	97734.4	39
479	17449	138635	97790.2	39
480	17428	138645	97790.8	39
481	18844	138712	97847	39
482	19045	138978	98103.3	39
483	19788	139450	98565.8	39
484	19997	139538	98643.2	39
485	19505	139656	98751.8	39
486	18752	139854	98939.3	39
487	18000	140049	99124.3	39
488	18116	140359	99424.5	39
489	18782	140369	99424.5	39
490	19561	140652	99697.4	39
491	20634	140958	99993.4	39
492	19184	141036	100062	39
493	21330	141046	100062	39
494	20671	141107	100112	39
495	20593	141334	100329	39
496	19124	141571	100556	39
497	18945	141953	100929	39
498	18725	142250	101215	39
499	18706	142274	101230	39
500	18764	142461	101407	39
501	20328	142536	101471	39
502	20635	142741	101599	40
503	20590	142790	101637	40
504	21955	143189	102026	40
505	22210	143235	102062	40
506	20535	143302	102119	40
507	19533	143770	102577	40
508	19735	143781	102578	40
509	19591	143949	102731	40
510	19731	144197	102969	40
511	21346	144250	103012	40
512	20947	144360	103111	40
513	21865	144559	103300	40
514	21562	144735	103466	40
515	20489	144953	103675	40
516	21512	145405	104058	40
517	21070	145602	104245	40
518	21039	145654	104286	40
519	20954	145853	104476	40
520	22477	146043	104656	40
521	22906	146469	105072	40
522	22720	146489	105082	40
523	22220	146641	105224	40
524	22698	146809	105382	40
525	21592	146937	105499	40
526	21497	147003	105556	40
527	21815	147404	105946	40
528	22951	147486	106019	40
529	22600	148178	106412	41
530	23765	148442	106497	41
531	23288	148752	106703	41
532	22151	148883	106825	41
533	26406	149463	107123	42
534	21988	149687	107337	42
535	21467	149721	107361	42
536	22278	149949	107579	42
537	22613	150246	107866	42
538	22458	150572	108182	42
539	24181	150751	108350	43
540	22110	151182	108772	43
541	23742	151380	108959	43
542	22365	151425	108995	43
543	23170	151585	109145	43
544	22375	151796	109345	43
545	21991	152103	109515	43
546	23246	152168	109570	43
547	23729	152594	109986	43
548	23705	152717	110099	44
549	23400	152828	110200	44
550	23785	152892	110254	44
551	23631	152914	110266	44
552	23257	153101	110443	44
553	23724	153367	110699	44
554	22958	153457	110779	44
555	23935	153891	111203	44
556	26013	154105	111407	44
557	23987	154123	111415	44
558	23842	154182	111464	44
559	23402	154355	111627	44
560	23500	154488	111750	44
561	22928	154619	111871	44
562	23009	155006	112248	44
563	24023	155070	112302	44
564	24249	155186	112408	44
565	24914	155566	112778	44
566	24088	155822	113024	44
567	24172	156138	113330	44
568	24157	156189	113371	44
569	24629	156202	113374	44
570	24825	156269	113431	44
571	24381	156324	113476	44
572	24276	156516	113658	44
573	24805	156758	113890	44
574	24883	156770	113892	44
575	24923	157346	114458	44
576	25015	157720	114822	44
577	24720	157738	114830	44
578	24739	157787	114869	44
579	25194	158022	115094	44
580	24987	158185	115247	44
581	25276	158320	115372	44
582	24983	158570	115612	44
583	25102	158860	115892	44
584	25396	158882	115904	44
585	25557	159067	116079	44
586	26060	159585	116587	44
587	26063	159596	116588	44
588	26240	159890	116872	44
589	26277	160625	117129	45
590	26102	160722	117215	45
591	25915	160778	117262	45
592	27224	161277	117751	45
593	26166	161335	117798	45
594	26681	161994	118448	45
595	26334	162083	118526	45
596	26518	162152	118585	45
597	26922	163154	119028	46
598	26480	163181	119045	46
599	27001	163318	119171	46
600	26914	163366	119210	46
601	26338	163757	119591	46
602	26939	163798	119622	46
603	26573	164023	119837	46
604	26798	164051	119855	46
605	27273	164126	119920	46
606	32480	164238	120021	47
607	40487	164292	120066	47
608	39561	164601	120066	47
609	40764	165040	120494	47
610	37981	165239	120683	47
611	32009	165363	120741	47
612	28455	165554	120922	47
613	28543	165671	121028	47
614	28458	165914	121261	47
615	27596	166361	121699	47
616	27291	166495	121823	47
617	27649	166526	121843	47
618	28897	166543	121851	47
619	27390	166553	121851	47
620	27695	167023	122311	47
621	28870	167194	122346	47
622	28642	167209	122350	47
623	27759	167455	122586	47
624	28746	167666	122788	47
625	28619	167948	123060	47
626	29451	168181	123283	47
627	29243	168233	123325	47
628	29729	168289	123371	47
629	29493	168633	123704	47
630	29397	169225	124037	48
631	29405	169649	124357	48
632	29322	169834	124532	48
633	29859	170078	124766	48
634	29921	170264	124942	48
635	29844	170297	124965	48
636	29757	170579	125237	48
637	28809	171294	125552	49
638	29233	171371	125619	49
639	30450	171485	125723	49
640	30718	171775	126004	49
641	29864	172124	126342	49
642	30495	172141	126349	49
643	30707	172546	126745	49
644	30524	172674	126862	49
645	29571	172971	127097	50
646	30219	173107	127223	50
647	29832	173518	127624	50
648	29840	173634	127730	50
649	30829	174163	128249	50
650	31295	174381	128279	50
651	31132	174545	128434	50
652	30881	174705	128584	50
653	30068	174829	128697	50
654	30235	175113	128972	50
655	30983	175255	129104	50
656	31209	175405	129243	50
657	30535	175750	129579	50
658	31280	176024	129812	50
659	31326	176504	130282	50
660	31177	176515	130283	50
661	31956	176618	130376	51
662	31699	176946	130694	51
663	32907	177123	130861	51
664	32192	177303	130880	51
665	31831	177334	130901	51
666	32495	177389	130946	51
667	31616	177690	131237	51
668	31226	177794	131331	51
669	31833	177962	131489	51
670	32833	178029	131546	51
671	32697	178459	131966	51
672	32354	178470	131967	51
673	32732	178553	132040	51
674	32721	178914	132391	51
675	32836	178955	132422	51
676	32884	178994	132451	51
677	33205	179656	132797	51
678	33133	179722	132853	51
679	32426	180001	133122	51
680	32626	180314	133425	51
681	33236	180651	133752	51
682	32748	180737	133828	51
683	32313	180909	133990	51
684	34685	181085	134155	51
685	34057	181306	134366	51
686	33301	181914	134691	52
687	33571	182004	134771	52
688	41993	182249	135006	52
689	33455	182514	135261	52
690	33302	182603	135340	52
691	33389	182671	135398	52
692	38320	182699	135416	52
693	39137	183065	135772	52
694	34252	183152	135849	52
695	33584	183315	136002	52
696	33617	183454	136103	53
697	34000	183526	136165	53
698	45078	183730	136359	53
699	40788	183745	136364	53
700	34553	184021	136630	53
701	39999	184316	136915	53
702	35045	184372	136961	53
703	34420	185181	137431	53
704	35274	185304	137544	53
705	45474	185768	137998	53
706	35009	185784	138004	53
707	35178	185921	138131	54
708	40475	185938	138139	54
709	34929	185993	138183	54
710	34934	186029	138209	54
711	40213	186132	138302	54
712	35543	186142	138302	54
713	35490	186629	138779	54
714	35734	186658	138798	54
715	40348	186672	138803	54
716	35563	186796	138916	54
717	41258	187000	139110	54
718	41193	187613	139713	54
719	36796	188027	140117	54
720	36199	188231	140311	54
721	41849	188703	140566	54
722	36994	188888	140740	54
723	47023	189115	140957	54
724	42338	189403	141235	54
725	37459	189462	141284	54
726	36630	189638	141450	54
727	41092	189665	141468	54
728	36871	189772	141564	55
729	37294	189919	141702	55
730	36755	189947	141720	55
731	37932	189961	141723	55
732	36805	190098	141851	55
733	38636	190334	142077	55
734	37504	190563	142295	55
735	37355	190788	142510	55
736	38191	190819	142532	55
737	37861	190861	142564	55
738	37713	190917	142610	55
739	38429	190950	142633	55
740	38345	190982	142654	55
741	37926	191279	142941	55
742	37812	191695	143212	55
743	38335	191818	143325	55
744	39192	192355	143828	55
745	38097	192371	143833	55
746	38323	192475	143927	55
747	38638	192737	144179	55
748	40176	192747	144179	55
749	39229	192868	144290	55
750	39327	193175	144587	55
751	38852	193636	145038	55
752	39179	193920	145313	55
753	40000	193949	145332	55
754	40324	194307	145494	56
755	41906	194353	145494	56
756	39494	194670	145800	56
757	39321	194839	145959	56
758	43230	194903	146013	56
759	41435	195087	146188	56
760	40434	195184	146275	56
761	39644	195291	146372	56
762	39738	195698	146769	56
763	40763	195926	146986	56
764	40103	196191	147103	57
765	40210	196463	147364	57
766	40002	196635	147527	57
767	41060	196909	147791	57
768	40420	197370	147989	57
769	41149	197549	148158	57
770	40533	197564	148163	57
771	40553	197916	148505	57
772	41147	198102	148657	58
773	41298	198269	148814	58
774	41294	198413	148948	58
775	40873	198622	149147	58
776	41862	198943	149458	58
777	41303	199134	149638	58
778	42085	199437	149932	58
779	41889	199447	149932	58
780	41653	199472	149946	58
781	41362	199909	150374	58
782	41348	200130	150585	58
783	42470	200140	150585	58
784	42504	200231	150666	58
785	42334	200386	150811	58
786	42661	200640	151055	58
787	43192	201313	151455	58
788	43862	201740	151742	59
789	42944	201807	151799	59
790	42285	201871	151853	59
791	42594	201887	151859	59
792	42791	202017	151979	59
793	43748	202114	152066	59
794	43102	202133	152075	59
795	43039	202314	152246	59
796	42938	202368	152290	59
797	43797	202464	152376	59
798	44648	202648	152550	59
799	44722	203043	152935	59
800	43798	203295	153177	59
801	44178	203737	153609	59
802	43944	204024	153886	59
803	44755	204156	154008	59
804	44724	204299	154141	59
805	43638	204487	154319	59
806	44125	204502	154324	59
807	44501	205188	154604	60
808	44985	205485	154891	60
809	44372	205612	155008	60
810	45163	205845	155231	60
811	46153	205917	155292	60
812	44779	206088	155454	60
813	45830	206150	155506	60
814	47162	206304	155650	60
815	47589	206649	155985	60
816	46189	206683	156008	60
817	47317	206703	156019	60
818	46909	207014	156259	61
819	48641	207049	156285	61
820	51005	207070	156296	61
821	46297	207411	156626	61
822	48894	207422	156628	61
823	50312	207461	156657	61
824	47102	207499	156684	61
825	46288	207546	156722	61
826	46973	208198	157066	61
827	46361	208331	157189	61
828	46732	208654	157502	61
829	46733	208671	157509	61
830	48314	208836	157664	61
831	47303	208949	157767	61
832	47365	208963	157771	61
833	46936	209203	158001	61
834	48345	209419	158207	61
835	47180	209466	158244	61
836	47518	209477	158245	61
837	47406	209804	158562	61
838	48585	210558	158980	62
839	47917	210668	159079	63
840	47833	210697	159098	63
841	47737	210857	159248	63
842	48862	211289	159671	63
843	47943	211716	160088	63
844	48209	211762	160124	63
845	49003	211961	160313	63
846	49076	212394	160547	63
847	48665	212530	160673	63
848	48734	212612	160744	63
849	49131	212761	160883	63
850	50226	212910	161022	63
851	48799	213070	161173	63
852	50150	213095	161187	63
853	49823	213109	161192	63
854	49966	213265	161290	63
855	49348	213288	161304	63
856	49620	213330	161335	63
857	50924	213402	161398	63
858	50971	213499	161485	63
859	50270	213670	161646	63
860	50187	213753	161718	63
861	50609	214117	162073	63
862	51114	214287	162232	63
863	50071	214351	162286	63
864	50142	214363	162288	63
865	51465	214522	162438	64
866	50987	214610	162516	64
867	51913	214846	162741	64
868	51925	214856	162741	64
869	52735	215081	162801	64
870	53342	215490	163093	64
871	53461	215790	163383	64
872	51471	215820	163403	65
873	52602	215932	163505	65
874	52164	216168	163732	65
875	52211	216350	163904	65
876	51871	216634	164177	65
877	53438	217395	164468	65
878	53028	217438	164502	65
879	54239	217506	164560	65
880	52426	217668	164712	65
881	54155	217984	165018	65
882	52878	218348	165372	65
883	53748	218741	165755	65
884	52650	218962	165966	65
885	53979	219100	166094	65
886	53051	219362	166345	65
887	53067	220205	166501	66
888	53151	220483	166770	66
889	55613	220627	166904	66
890	55262	220788	167055	66
891	53632	220978	167234	66
892	54196	221115	167362	66
893	56135	221127	167363	66
894	53852	221646	167873	66
895	54671	222178	168168	67
896	54517	222355	168334	67
897	55543	222433	168402	67
898	54201	222477	168436	67
899	55379	222742	168692	67
900	54476	223341	169280	67
901	56015	223667	169596	67
902	54921	223846	169765	67
903	56066	224072	169982	67
904	55242	224082	169982	67
905	56461	224164	170054	67
906	55353	224437	170317	67
907	55659	224742	170611	67
908	55995	225207	171067	67
909	57456	225339	171188	67
910	55822	225815	171478	68
911	55856	226213	171866	68
912	58357	226239	171882	68
913	57311	226742	172376	68
914	57514	226933	172556	68
915	57065	227409	173022	68
916	56506	227674	173277	68
917	58316	227700	173293	68
918	56760	228355	173729	68
919	59898	228480	173844	68
920	59598	228538	173892	68
921	59066	228559	173903	68
922	57682	228796	174129	68
923	57612	228901	174225	69
924	57656	229054	174367	69
925	59222	229102	174405	69
926	58403	229371	174664	69
927	59063	229452	174735	69
928	61395	229714	174987	69
929	60830	229738	175002	69
930	59411	229767	175020	69
931	58829	230175	175323	69
932	58540	230505	175643	69
933	60637	231067	175950	70
934	59493	231350	176223	70
935	59707	231377	176240	70
936	58899	231687	176541	70
937	61456	231701	176544	70
938	59650	232124	176957	70
939	60212	232613	177437	70
940	59257	232624	177438	70
941	62938	233004	177808	70
942	61822	233017	177810	70
943	61046	233426	178209	70
944	60084	233596	178369	70
945	61994	233900	178540	71
946	59838	234010	178639	71
947	60954	234434	179053	71
948	60013	234996	179347	71
949	62096	235023	179363	71
950	61370	235079	179410	71
951	61137	235294	179615	71
952	60494	235555	179866	71
953	61932	235682	179983	71
954	62400	236178	180469	71
955	62117	236190	180470	71
956	63128	236396	180667	72
957	62952	236572	180833	72
958	61437	236786	181037	72
959	65202	236801	181042	72
960	62890	236811	181042	72
961	62292	236834	181054	72
962	61678	236846	181057	72
963	63293	237006	181207	72
964	61468	237140	181331	72
965	63031	237539	181719	72
966	63221	237594	181765	72
967	61875	237699	181860	72
968	63178	237724	181875	72
969	63959	237981	182122	72
970	64356	238033	182164	72
971	65205	238165	182286	72
972	65401	238318	182429	72
973	65875	238652	182753	72
974	65268	238714	182805	72
975	65113	238995	183051	72
976	65730	239239	183285	72
977	65610	239302	183338	72
978	63819	239753	183779	72
979	64223	239772	183788	72
980	63669	239829	183835	72
981	64213	239840	183836	72
982	65646	239901	183888	72
983	65956	240047	183945	72
984	64392	240195	184083	72
985	65741	240501	184379	72
986	65325	240972	184840	72
987	64619	240991	184849	72
988	64492	241017	184865	72
989	65156	241087	184925	72
990	65272	241290	185118	73
991	66305	241320	185138	73
992	65155	241358	185166	73
993	65626	241400	185198	73
994	65670	241505	185293	73
995	65967	241532	185310	73
996	67101	242004	185772	73
997	66483	242354	186112	73
998	66518	242412	186160	73
999	66229	242563	186301	73
1000	67030	242576	186305	73
1001	66143	242909	186627	73
